\babel@toc {russian}{}
\contentsline {section}{\numberline {1.\relax }Постановка задачи}{3}{section.1}%
\contentsline {section}{\numberline {2.\relax }Теория}{3}{section.2}%
\contentsline {section}{\numberline {3.\relax }Результаты}{4}{section.3}%
\contentsline {subsection}{\numberline {3.1.\relax }Модельные данные}{4}{subsection.3.1}%
\contentsline {subsubsection}{\numberline {3.1.1.\relax }Хорошо разделимые данные}{4}{subsubsection.3.1.1}%
\contentsline {subsubsection}{\numberline {3.1.2.\relax }Плохо разделимые данные}{5}{subsubsection.3.1.2}%
\contentsline {subsection}{\numberline {3.2.\relax }Данные из репозитория german}{7}{subsection.3.2}%
\contentsline {section}{\numberline {4.\relax }Реализация}{8}{section.4}%
\contentsline {section}{\numberline {5.\relax }Выводы}{9}{section.5}%
\contentsline {subsection}{\numberline {5.1.\relax }Модельные данные}{9}{subsection.5.1}%
\contentsline {subsection}{\numberline {5.2.\relax }Данные из репозитория}{9}{subsection.5.2}%
\contentsline {subsection}{\numberline {5.3.\relax }Общий вывод}{9}{subsection.5.3}%
\contentsline {section}{\numberline {6.\relax }Исходный код}{9}{section.6}%
